[gd_scene load_steps=4 format=2]

[ext_resource path="res://Assets/Fonts/Title.tres" type="DynamicFont" id=1]
[ext_resource path="res://Assets/Fonts/MenuButton.tres" type="DynamicFont" id=2]
[ext_resource path="res://Script/button.gd" type="Script" id=3]

[node name="ColorRect" type="ColorRect"]
anchor_right = 1.0
anchor_bottom = 1.0
color = Color( 0.321569, 0.0156863, 0.0156863, 1 )

[node name="Label" type="Label" parent="."]
margin_left = 262.47
margin_top = 132.0
margin_right = 1035.47
margin_bottom = 267.0
custom_fonts/font = ExtResource( 1 )
custom_colors/font_color = Color( 1, 0.658824, 0.411765, 1 )
text = "G A M E   O V E R"

[node name="Retry" type="LinkButton" parent="."]
margin_left = 364.997
margin_top = 443.0
margin_right = 531.997
margin_bottom = 504.0
custom_fonts/font = ExtResource( 2 )
custom_colors/font_color = Color( 1, 1, 1, 1 )
text = "RETRY"
underline = 2
script = ExtResource( 3 )
scene_to_load = "Level0"

[node name="Exit" type="LinkButton" parent="."]
margin_left = 789.0
margin_top = 443.0
margin_right = 905.0
margin_bottom = 506.0
custom_fonts/font = ExtResource( 2 )
text = "EXIT"
underline = 2
script = ExtResource( 3 )
[connection signal="pressed" from="Retry" to="Retry" method="_on_Retry_pressed"]
[connection signal="pressed" from="Exit" to="Exit" method="_on_Exit2_pressed"]
